…
Look at time series:

``` r
norm_noinfer <- readRDS("./SFA2_norm_prepped.rds") %>%
  semi_join(noinfer_inocasvs)
norm_noinfer
```

    ## # A tibble: 497 × 6
    ##    Inoculant ASV                              label    time abund norm_abund_avg
    ##    <chr>     <chr>                            <chr>   <dbl> <dbl>          <dbl>
    ##  1 10        104a2aec79dcec3769799af4a6719ace 10_104…   0   -5.81       0.00301 
    ##  2 10        104a2aec79dcec3769799af4a6719ace 10_104…   3   -6.35       0.00175 
    ##  3 10        4205b2d577048e1da9d9712f9476cd7b 10_420…   3.5 -3.68       0.0252  
    ##  4 10        4d0009900aead37d86f6c0a59ee97de3 10_4d0…   3.5 -8.01       0.000333
    ##  5 10        5327dedf2054fbc2bf400250cf4165a8 10_532…   3.5 -6.69       0.00125 
    ##  6 10        5327dedf2054fbc2bf400250cf4165a8 10_532…   4   -5.53       0.00396 
    ##  7 10        4205b2d577048e1da9d9712f9476cd7b 10_420…   4.5 -4.89       0.00753 
    ##  8 10        fdc8d30ae52cbbd717577d34654bf2b6 10_fdc…   5   -5.79       0.00306 
    ##  9 10        4205b2d577048e1da9d9712f9476cd7b 10_420…   5.5 -6.49       0.00152 
    ## 10 10        4d0009900aead37d86f6c0a59ee97de3 10_4d0…   5.5 -5.30       0.00500 
    ## # ℹ 487 more rows
…
# Autocorrelation

``` r
library("tseries")

# growth inferred time series
norm_gr <- readRDS("./SFA2_norm_prepped.rds") %>%
  semi_join(growth) %>% 
  select(ASV, Inoculant, label, time, abund, norm_abund_avg) %>% 
  add_column(infer="yes")
norm_gr
```

    ## # A tibble: 1,538 × 7
    ##    ASV                          Inoculant label  time abund norm_abund_avg infer
    ##    <chr>                        <chr>     <chr> <dbl> <dbl>          <dbl> <chr>
    ##  1 ab7aedf2ef51264a4c188abe266… 10        10_a…     0 -5.70       0.00334  yes  
    ##  2 06c720ffbf0839e2b78d2c140d7… 10        10_0…     0 -6.83       0.00108  yes  
    ##  3 b98330a75fbab915bc79e6ad448… 10        10_b…     0 -5.70       0.00335  yes  
    ##  4 87ab930682e9bc3ae09a9cfd13c… 10        10_8…     0 -7.36       0.000634 yes  
    ##  5 32102f31db06d8a0411da55c410… 10        10_3…     0 -5.36       0.00470  yes  
    ##  6 fed2377b60ef09790fc532bbbe2… 10        10_f…     0 -6.67       0.00127  yes  
    ##  7 a8bdf0637c93e3f78ee95aed462… 10        10_a…     0 -4.88       0.00757  yes  
    ##  8 0134683a521e4c34adf2d515cbb… 10        10_0…     0 -4.96       0.00699  yes  
    ##  9 1fe5dcc5236abc89073aebbb878… 10        10_1…     0 -6.02       0.00242  yes  
    ## 10 29be7b1a76d1f575ef3ee8d7cc1… 10        10_2…     0 -7.15       0.000786 yes  
    ## # ℹ 1,528 more rows

``` r
# enriched but no growth inference time series
norm_noinfer <- norm_noinfer %>% 
  add_column(infer="no")
norm_noinfer
```

    ## # A tibble: 497 × 7
    ##    Inoculant ASV                          label  time abund norm_abund_avg infer
    ##    <chr>     <chr>                        <chr> <dbl> <dbl>          <dbl> <chr>
    ##  1 10        104a2aec79dcec3769799af4a67… 10_1…   0   -5.81       0.00301  no   
    ##  2 10        104a2aec79dcec3769799af4a67… 10_1…   3   -6.35       0.00175  no   
    ##  3 10        4205b2d577048e1da9d9712f947… 10_4…   3.5 -3.68       0.0252   no   
    ##  4 10        4d0009900aead37d86f6c0a59ee… 10_4…   3.5 -8.01       0.000333 no   
    ##  5 10        5327dedf2054fbc2bf400250cf4… 10_5…   3.5 -6.69       0.00125  no   
    ##  6 10        5327dedf2054fbc2bf400250cf4… 10_5…   4   -5.53       0.00396  no   
    ##  7 10        4205b2d577048e1da9d9712f947… 10_4…   4.5 -4.89       0.00753  no   
    ##  8 10        fdc8d30ae52cbbd717577d34654… 10_f…   5   -5.79       0.00306  no   
    ##  9 10        4205b2d577048e1da9d9712f947… 10_4…   5.5 -6.49       0.00152  no   
    ## 10 10        4d0009900aead37d86f6c0a59ee… 10_4…   5.5 -5.30       0.00500  no   
    ## # ℹ 487 more rows

``` r
# combine
norm_both <- bind_rows(norm_gr, norm_noinfer)
norm_both
```

    ## # A tibble: 2,035 × 7
    ##    ASV                          Inoculant label  time abund norm_abund_avg infer
    ##    <chr>                        <chr>     <chr> <dbl> <dbl>          <dbl> <chr>
    ##  1 ab7aedf2ef51264a4c188abe266… 10        10_a…     0 -5.70       0.00334  yes  
    ##  2 06c720ffbf0839e2b78d2c140d7… 10        10_0…     0 -6.83       0.00108  yes  
    ##  3 b98330a75fbab915bc79e6ad448… 10        10_b…     0 -5.70       0.00335  yes  
    ##  4 87ab930682e9bc3ae09a9cfd13c… 10        10_8…     0 -7.36       0.000634 yes  
    ##  5 32102f31db06d8a0411da55c410… 10        10_3…     0 -5.36       0.00470  yes  
    ##  6 fed2377b60ef09790fc532bbbe2… 10        10_f…     0 -6.67       0.00127  yes  
    ##  7 a8bdf0637c93e3f78ee95aed462… 10        10_a…     0 -4.88       0.00757  yes  
    ##  8 0134683a521e4c34adf2d515cbb… 10        10_0…     0 -4.96       0.00699  yes  
    ##  9 1fe5dcc5236abc89073aebbb878… 10        10_1…     0 -6.02       0.00242  yes  
    ## 10 29be7b1a76d1f575ef3ee8d7cc1… 10        10_2…     0 -7.15       0.000786 yes  
    ## # ℹ 2,025 more rows
…
